{
  "docs": [
    {
      "id": 400062,
      "type": "movie",
      "externalId": {
        "kpHD": "459ba0b086f365f0abdfbd942b738ea3",
        "imdb": "tt1127884"
      },
      "name": "\u041a\u043e\u043d\u0446\u0435\u0440\u0442\u043d\u044b\u0439 \u0442\u0443\u0440 \u0425\u0430\u043d\u043d\u044b \u041c\u043e\u043d\u0442\u0430\u043d\u044b \u0438 \u041c\u0430\u0439\u043b\u0438 \u0421\u0430\u0439\u0440\u0443\u0441 \u00ab\u0414\u0432\u0435 \u0436\u0438\u0437\u043d\u0438\u00bb",
      "rating": {
        "kp": 5.709,
        "imdb": 2.5,
        "filmCritics": 6,
        "russianFilmCritics": 0,
        "await": 0
      },
      "description": "3-\u0438\u0439 \u0444\u0438\u043b\u044c\u043c \u043a\u043e\u043d\u0446\u0435\u0440\u0442\u0430 2007 \u0425\u0430\u043d\u043d\u044b \u041c\u043e\u043d\u0442\u0430\u043d\u044b/\u041c\u0430\u0439\u043b\u0438 \u0421\u0430\u0439\u0440\u0443\u0441.",
      "votes": {
        "kp": 1215,
        "imdb": 12067,
        "filmCritics": 45,
        "russianFilmCritics": 0,
        "await": 0
      },
      "year": 2008,
      "poster": {
        "url": "https://st.kp.yandex.net/images/film_big/400062.jpg",
        "previewUrl": "https://st.kp.yandex.net/images/film_iphone/iphone360_400062.jpg"
      },
      "genres": [
        {
          "name": "\u043a\u043e\u043d\u0446\u0435\u0440\u0442"
        },
        {
          "name": "\u043c\u0443\u0437\u044b\u043a\u0430"
        }
      ],
      "countries": [
        {
          "name": "\u0421\u0428\u0410"
        }
      ],
      "alternativeName": "Hannah Montana and Miley Cyrus: Best of Both Worlds Concert",
      "enName": null,
      "movieLength": 84,
      "names": [
        {
          "name": "\u041a\u043e\u043d\u0446\u0435\u0440\u0442\u043d\u044b\u0439 \u0442\u0443\u0440 \u0425\u0430\u043d\u043d\u044b \u041c\u043e\u043d\u0442\u0430\u043d\u044b \u0438 \u041c\u0430\u0439\u043b\u0438 \u0421\u0430\u0439\u0440\u0443\u0441 \u00ab\u0414\u0432\u0435 \u0436\u0438\u0437\u043d\u0438\u00bb"
        },
        {
          "name": "Hannah Montana and Miley Cyrus: Best of Both Worlds Concert"
        }
      ],
      "shortDescription": "\u0417\u0440\u0435\u043b\u0438\u0449\u043d\u043e\u0435 \u0448\u043e\u0443 \u0441 \u0433\u0440\u0430\u0444\u0438\u043a\u043e\u0439 \u0438 \u0441\u043f\u0435\u0446\u044d\u0444\u0444\u0435\u043a\u0442\u0430\u043c\u0438. \u041a\u043e\u043d\u0446\u0435\u0440\u0442 \u0434\u043b\u044f \u0444\u0430\u043d\u0430\u0442\u043e\u0432 \u0441\u0435\u0440\u0438\u0430\u043b\u0430 \u043e \u0448\u043a\u043e\u043b\u044c\u043d\u0438\u0446\u0435, \u0441\u043e\u0432\u043c\u0435\u0449\u0430\u044e\u0449\u0435\u0439 \u0443\u0447\u0435\u0431\u0443 \u0438 \u0441\u0446\u0435\u043d\u0443",
      "logo": {
        "url": "https://avatars.mds.yandex.net/get-ott/239697/2a0000017ace1b129e77c3c9ed5ac960f0be/orig"
      },
      "watchability": {
        "items": [
          {
            "name": "Okko",
            "logo": {
              "url": "https://avatars.mds.yandex.net/get-ott/239697/7713e586-17d1-42d1-ac62-53e9ef1e70c3/orig"
            },
            "url": "https://okko.tv/movie/hannah-montana-miley-cyrus-best-of-both-worlds-concert?utm_medium=referral&utm_source=yandex_search&utm_campaign=new_search_feed"
          }
        ]
      }
    },
    {
      "externalId": {
        "kpHD": null,
        "imdb": "tt0093427",
        "tmdb": 142773
      },
      "rating": {
        "kp": 8.816,
        "imdb": 8.6,
        "filmCritics": 6.4,
        "russianFilmCritics": 0,
        "await": 0
      },
      "votes": {
        "kp": 1171,
        "imdb": 1079,
        "filmCritics": 7,
        "russianFilmCritics": 0,
        "await": 0
      },
      "movieLength": 90,
      "id": 490292,
      "type": "movie",
      "name": "\u0412\u043e\u043b\u0448\u0435\u0431\u0441\u0442\u0432\u043e Queen \u0432 \u0411\u0443\u0434\u0430\u043f\u0435\u0448\u0442\u0435",
      "description": "27 \u0438\u044e\u043b\u044f 1986 \u0433\u043e\u0434\u0430. \u0411\u0443\u0434\u0430\u043f\u0435\u0448\u0442. \u0423\u0436\u0435 \u0441\u0443\u043c\u0435\u0440\u043a\u0438. Nepstadion - \u0441\u0430\u043c\u044b\u0439 \u0431\u043e\u043b\u044c\u0448\u043e\u0439 \u0441\u0442\u0430\u0434\u0438\u043e\u043d \u0412\u0435\u043d\u0433\u0440\u0438\u0438. \u0417\u0430 \u0441\u0447\u0438\u0442\u0430\u043d\u043d\u044b\u0435 \u043c\u0433\u043d\u043e\u0432\u0435\u043d\u0438\u044f \u0442\u0440\u0438\u0431\u0443\u043d\u044b \u0438 \u0441\u0430\u043c\u043e \u043f\u043e\u043b\u0435 \u0441\u0442\u0430\u0434\u0438\u043e\u043d\u0430 \u0437\u0430\u043f\u043e\u043b\u043d\u044f\u044e\u0442\u0441\u044f \u0434\u0435\u0441\u044f\u0442\u043a\u0430\u043c\u0438 \u0437\u0440\u0438\u0442\u0435\u043b\u0435\u0439, \u0430 \u043f\u043e\u0442\u043e\u043c \u043d\u0430\u0441\u0442\u0443\u043f\u0438\u0442 \u0432\u0435\u0447\u0435\u0440 - \u0438 \u043d\u0430 \u043f\u043e\u043c\u043e\u0441\u0442\u0435 \u043f\u043e\u044f\u0432\u0438\u0442\u0441\u044f \u0414\u0436\u043e\u043d \u0414\u0438\u043a\u043e\u043d, \u0411\u0440\u0430\u0439\u0435\u043d \u041c\u044d\u0439, \u0420\u043e\u0434\u0436\u0435\u0440 \u0422\u0435\u0439\u043b\u043e\u0440 \u0438 \u0424\u0440\u0435\u0434\u0434\u0438 \u041c\u0435\u0440\u043a\u044c\u044e\u0440\u0438. \u041c\u0435\u0440\u043a\u044c\u044e\u0440\u0438 - \u0438\u043c\u044f \u043a\u043e\u0442\u043e\u0440\u043e\u043c\u0443 - \u0412\u0441\u0435\u043b\u0435\u043d\u043d\u0430\u044f. \u0418 \u0442\u043e\u0433\u0434\u0430 \u043d\u0430 \u0441\u043c\u0435\u043d\u0443 \u043c\u0433\u043d\u043e\u0432\u0435\u043d\u0438\u044f\u043c \u043f\u0440\u0438\u0434\u0435\u0442 \u0412\u0435\u0447\u043d\u043e\u0441\u0442\u044c.",
      "year": 1987,
      "poster": {
        "url": "https://st.kp.yandex.net/images/film_big/490292.jpg",
        "previewUrl": "https://st.kp.yandex.net/images/film_iphone/iphone360_490292.jpg"
      },
      "genres": [
        {
          "name": "\u043a\u043e\u043d\u0446\u0435\u0440\u0442"
        },
        {
          "name": "\u043c\u0443\u0437\u044b\u043a\u0430"
        },
        {
          "name": "\u0434\u043e\u043a\u0443\u043c\u0435\u043d\u0442\u0430\u043b\u044c\u043d\u044b\u0439"
        }
      ],
      "countries": [
        {
          "name": "\u0412\u0435\u043d\u0433\u0440\u0438\u044f"
        },
        {
          "name": "\u041a\u0430\u043d\u0430\u0434\u0430"
        },
        {
          "name": "\u0421\u0428\u0410"
        }
      ],
      "alternativeName": "Var\u00e1zslat - A Queen Budapesten",
      "enName": "Queen Live in Budapest",
      "names": [
        {
          "name": "\u0412\u043e\u043b\u0448\u0435\u0431\u0441\u0442\u0432\u043e Queen \u0432 \u0411\u0443\u0434\u0430\u043f\u0435\u0448\u0442\u0435"
        },
        {
          "name": "Var\u00e1zslat - A Queen Budapesten"
        },
        {
          "name": "Var\u00e1zslat - Queen Budapesten",
          "language": "HU",
          "type": null
        },
        {
          "name": "Queen: Hungarian Rhapsody - Live in Budapest",
          "language": "GB",
          "type": null
        },
        {
          "name": "\u041a\u0443\u0438\u043d \u0432 \u0411\u0443\u0434\u0430\u043f\u0435\u0449\u0430",
          "language": "BG",
          "type": "(Bulgarian title)"
        },
        {
          "name": "Hungarian Rhapsody: Queen Live in Budapest",
          "language": "BR",
          "type": null
        },
        {
          "name": "Queen Budapestissa 1986",
          "language": "FI",
          "type": null
        },
        {
          "name": "Queen i Budapest 1986",
          "language": "FI",
          "type": "Swedish title"
        },
        {
          "name": "Hungarian Rapsody: Queen Live in Budapest",
          "language": "IT",
          "type": null
        },
        {
          "name": "Queen - Hungarian Rhapsody",
          "language": "PL",
          "type": null
        },
        {
          "name": "Hungarian Rhapsody: Queen ao Vivo em Budapest '86",
          "language": "PT",
          "type": null
        },
        {
          "name": "Queen Live in Budapest",
          "language": "US",
          "type": null
        },
        {
          "name": "Queen: Hungarian Rhapsody - Live in Budapest '86",
          "language": "GB",
          "type": null
        },
        {
          "name": "Queen: Hungarian Rhapsody - Live in Budapest",
          "language": "ES",
          "type": null
        },
        {
          "name": "\u30cf\u30f3\u30ac\u30ea\u30a2\u30f3\u30fb\u30e9\u30d7\u30bd\u30c7\u30a3\uff5e\u30af\u30a4\u30fc\u30f3\u30fb\u30e9\u30a4\u30f4\u30fb\u30a4\u30f3\u30fb\u30d6\u30c0\u30da\u30b9\u30c8'86",
          "language": "JP",
          "type": "(Japanese title)"
        }
      ],
      "shortDescription": null,
      "logo": {
        "url": null
      },
      "watchability": {
        "items": null
      }
    },
    {
      "id": 320972,
      "externalId": {
        "kpHD": null
      },
      "name": "Nightwish: \u041a\u043e\u043d\u0435\u0446 \u044d\u0440\u044b",
      "alternativeName": "Nightwish: End of an Era",
      "enName": null,
      "names": [
        {
          "name": "Nightwish: \u041a\u043e\u043d\u0435\u0446 \u044d\u0440\u044b"
        },
        {
          "name": "Nightwish: End of an Era"
        }
      ],
      "type": "movie",
      "year": 2006,
      "description": "\u041f\u043e\u0441\u043b\u0435\u0434\u043d\u0438\u0439 \u043a\u043e\u043d\u0446\u0435\u0440\u0442 \u043c\u0438\u0440\u043e\u0432\u043e\u0433\u043e \u0442\u0443\u0440\u0430 Nightwish \u00abOnce\u00bb, \u043a\u043e\u0442\u043e\u0440\u044b\u0439 \u0434\u043b\u0438\u043b\u0441\u044f \u0431\u043e\u043b\u0435\u0435 \u0447\u0435\u043c \u043f\u043e\u043b\u0442\u043e\u0440\u0430 \u0433\u043e\u0434\u0430, \u0441\u043e\u0441\u0442\u043e\u044f\u043b\u0441\u044f 21 \u043e\u043a\u0442\u044f\u0431\u0440\u044f \u043d\u0430 \u0410\u0440\u0435\u043d\u0435 \u0425\u0430\u0440\u0442\u0443\u043e\u043b\u043b (Hartwall Arena) \u0432 \u0425\u0435\u043b\u044c\u0441\u0438\u043d\u043a\u0438.",
      "shortDescription": null,
      "rating": {
        "kp": 8.669,
        "imdb": 9.1,
        "filmCritics": 0,
        "russianFilmCritics": 0,
        "await": 0
      },
      "votes": {
        "kp": 1154,
        "imdb": 870,
        "filmCritics": 0,
        "russianFilmCritics": 0,
        "await": 0
      },
      "movieLength": 103,
      "poster": {
        "url": "https://st.kp.yandex.net/images/film_big/320972.jpg",
        "previewUrl": "https://st.kp.yandex.net/images/film_iphone/iphone360_320972.jpg"
      },
      "genres": [
        {
          "name": "\u043c\u0443\u0437\u044b\u043a\u0430"
        },
        {
          "name": "\u043a\u043e\u043d\u0446\u0435\u0440\u0442"
        }
      ],
      "countries": [
        {
          "name": "\u0424\u0438\u043d\u043b\u044f\u043d\u0434\u0438\u044f"
        }
      ],
      "watchability": {
        "items": null
      },
      "releaseYears": []
    },
    {
      "id": 1280668,
      "type": "movie",
      "externalId": {
        "kpHD": null,
        "imdb": "tt11244448",
        "tmdb": 643217
      },
      "name": "\u041c\u0438\u043b\u0435\u043d \u0424\u0430\u0440\u043c\u0435\u0440 2019 \u2014 \u0432 \u043a\u0438\u043d\u043e",
      "rating": {
        "kp": 8.474,
        "imdb": 0,
        "filmCritics": 0,
        "russianFilmCritics": 0,
        "await": 94.92
      },
      "description": "\u041f\u043e\u0441\u043b\u0435 \u0448\u0435\u0441\u0442\u0438\u043b\u0435\u0442\u043d\u0435\u0433\u043e \u043f\u0435\u0440\u0435\u0440\u044b\u0432\u0430 \u041c\u0438\u043b\u0435\u043d \u0424\u0430\u0440\u043c\u0435\u0440 \u0442\u0440\u0438\u0443\u043c\u0444\u0430\u043b\u044c\u043d\u043e \u0432\u0435\u0440\u043d\u0443\u043b\u0430\u0441\u044c \u043d\u0430 \u0441\u0446\u0435\u043d\u0443, \u0434\u0430\u0432 \u0441\u0435\u0440\u0438\u044e \u043a\u043e\u043d\u0446\u0435\u0440\u0442\u043e\u0432 \u0432 \u0437\u043d\u0430\u043c\u0435\u043d\u0438\u0442\u043e\u043c \u043f\u0430\u0440\u0438\u0436\u0441\u043a\u043e\u043c La Defense Arena \u2013 \u0441\u0430\u043c\u043e\u043c \u0431\u043e\u043b\u044c\u0448\u043e\u043c \u0437\u0430\u043b\u0435 \u0415\u0432\u0440\u043e\u043f\u044b. \u0412 \u043f\u0440\u043e\u0433\u0440\u0430\u043c\u043c\u0443 \u0432\u043e\u0448\u043b\u0438 \u043a\u0430\u043a \u0443\u0436\u0435 \u043b\u044e\u0431\u0438\u043c\u044b\u0435 \u043f\u0443\u0431\u043b\u0438\u043a\u043e\u0439 \u0445\u0438\u0442\u044b, \u0442\u0430\u043a \u0438 \u043f\u0435\u0441\u043d\u0438 \u0438\u0437 \u043d\u043e\u0432\u043e\u0433\u043e \u0430\u043b\u044c\u0431\u043e\u043c\u0430.",
      "votes": {
        "kp": 1096,
        "imdb": 0,
        "filmCritics": 0,
        "russianFilmCritics": 0,
        "await": 325
      },
      "year": 2019,
      "poster": {
        "url": "https://st.kp.yandex.net/images/film_big/1280668.jpg",
        "previewUrl": "https://st.kp.yandex.net/images/film_iphone/iphone360_1280668.jpg"
      },
      "genres": [
        {
          "name": "\u043a\u043e\u043d\u0446\u0435\u0440\u0442"
        }
      ],
      "countries": [
        {
          "name": "\u0424\u0440\u0430\u043d\u0446\u0438\u044f"
        }
      ],
      "alternativeName": "Mylene Farmer 2019 \u2014 Le Film",
      "enName": null,
      "names": [
        {
          "name": "\u041c\u0438\u043b\u0435\u043d \u0424\u0430\u0440\u043c\u0435\u0440 2019 \u2014 \u0432 \u043a\u0438\u043d\u043e"
        },
        {
          "name": "Mylene Farmer 2019 \u2014 Le Film"
        }
      ],
      "movieLength": 120,
      "shortDescription": null,
      "logo": {
        "url": null
      },
      "watchability": {
        "items": null
      }
    },
    {
      "id": 710071,
      "type": "movie",
      "externalId": {
        "kpHD": null,
        "imdb": null
      },
      "name": "Led Zeppelin \u00abCelebration Day\u00bb",
      "rating": {
        "kp": 8.58,
        "imdb": 8.8,
        "filmCritics": 0,
        "russianFilmCritics": 0,
        "await": 97.28
      },
      "description": "\u0413\u0440\u0430\u043d\u0434\u0438\u043e\u0437\u043d\u044b\u0439 \u043a\u043e\u043d\u0446\u0435\u0440\u0442 \u0433\u0440\u0443\u043f\u043f\u044b Led Zeppelin \u043d\u0430 \u043f\u043b\u043e\u0449\u0430\u0434\u043a\u0435 O2 Arena \u0432 \u041b\u043e\u043d\u0434\u043e\u043d\u0435, \u043a\u043e\u0442\u043e\u0440\u044b\u0439 \u043f\u043e\u0441\u0435\u0442\u0438\u043b\u0438  18 \u0442\u044b\u0441\u044f\u0447 \u0437\u0440\u0438\u0442\u0435\u043b\u0435\u0439 \u0438\u0437 20 \u043c\u0438\u043b\u043b\u0438\u043e\u043d\u043e\u0432 \u0436\u0435\u043b\u0430\u044e\u0449\u0438\u0445.",
      "votes": {
        "kp": 1021,
        "imdb": 2596,
        "filmCritics": 0,
        "russianFilmCritics": 1,
        "await": 172
      },
      "year": 2012,
      "poster": {
        "url": "https://st.kp.yandex.net/images/film_big/710071.jpg",
        "previewUrl": "https://st.kp.yandex.net/images/film_iphone/iphone360_710071.jpg"
      },
      "genres": [
        {
          "name": "\u043a\u043e\u043d\u0446\u0435\u0440\u0442"
        },
        {
          "name": "\u043c\u0443\u0437\u044b\u043a\u0430"
        }
      ],
      "countries": [
        {
          "name": "\u0412\u0435\u043b\u0438\u043a\u043e\u0431\u0440\u0438\u0442\u0430\u043d\u0438\u044f"
        }
      ],
      "alternativeName": "Led Zeppelin \u00abCelebration Day\u00bb",
      "enName": null,
      "names": [
        {
          "name": "Led Zeppelin \u00abCelebration Day\u00bb"
        },
        {
          "name": "Led Zeppelin \u00abCelebration Day\u00bb"
        }
      ],
      "movieLength": 124,
      "shortDescription": null,
      "logo": {
        "url": null
      },
      "watchability": {
        "items": null
      }
    },
    {
      "externalId": {
        "kpHD": null,
        "imdb": "tt10765852"
      },
      "rating": {
        "kp": 8.336,
        "imdb": 8.6,
        "filmCritics": 0,
        "russianFilmCritics": 0,
        "await": 95.88
      },
      "votes": {
        "kp": 985,
        "imdb": 1499,
        "filmCritics": 0,
        "russianFilmCritics": 0,
        "await": 495
      },
      "movieLength": 150,
      "id": 1291058,
      "type": "movie",
      "name": "Metallica \u0438 \u0421\u0438\u043c\u0444\u043e\u043d\u0438\u0447\u0435\u0441\u043a\u0438\u0439 \u043e\u0440\u043a\u0435\u0441\u0442\u0440 \u0421\u0430\u043d-\u0424\u0440\u0430\u043d\u0446\u0438\u0441\u043a\u043e: S&M\u00b2",
      "description": "\u0412 1999 \u0433\u043e\u0434\u0443 \u0441\u043e\u0441\u0442\u043e\u044f\u043b\u0441\u044f \u0437\u043d\u0430\u043c\u0435\u043d\u0438\u0442\u044b\u0439 \u043a\u043e\u043d\u0446\u0435\u0440\u0442 Metallica \u0441 \u0441\u0438\u043c\u0444\u043e\u043d\u0438\u0447\u0435\u0441\u043a\u0438\u043c \u043e\u0440\u043a\u0435\u0441\u0442\u0440\u043e\u043c, \u043a\u043e\u0442\u043e\u0440\u044b\u043c \u0434\u0438\u0440\u0438\u0436\u0438\u0440\u043e\u0432\u0430\u043b \u043c\u0430\u044d\u0441\u0442\u0440\u043e \u041c\u0430\u0439\u043a\u043b \u041a\u044d\u0439\u043c\u0435\u043d. \u0422\u043e\u0433\u0434\u0430 \u0433\u0440\u0443\u043f\u043f\u0430 \u0438\u0441\u043f\u043e\u043b\u043d\u0438\u043b\u0430 \u0432\u0441\u0435 \u043a\u043e\u043c\u043f\u043e\u0437\u0438\u0446\u0438\u0438 \u0438\u0437 \u0441\u0432\u043e\u0438\u0445 \u0430\u043b\u044c\u0431\u043e\u043c\u043e\u0432, \u043e\u0442 \u00abRide the Lightning\u00bb \u0434\u043e \u00abReLoad\u00bb. \u041f\u043e\u0441\u043b\u0435 \u0448\u043e\u0443 \u043c\u0443\u0437\u044b\u043a\u0430\u043d\u0442\u044b \u0432\u044b\u043f\u0443\u0441\u0442\u0438\u043b\u0438 \u0441\u043e\u0432\u043c\u0435\u0441\u0442\u043d\u044b\u0439 \u043a\u043e\u043d\u0446\u0435\u0440\u0442\u043d\u044b\u0439 \u0430\u043b\u044c\u0431\u043e\u043c \u00abS&M\u00bb, \u043a\u043e\u0442\u043e\u0440\u044b\u0439 \u043f\u043e\u043b\u0443\u0447\u0438\u043b \u043f\u0440\u0435\u043c\u0438\u044e \u00ab\u0413\u0440\u044d\u043c\u043c\u0438\u00bb. 20 \u043b\u0435\u0442 \u0441\u043f\u0443\u0441\u0442\u044f \u043b\u0435\u0433\u0435\u043d\u0434\u0430\u0440\u043d\u0430\u044f \u0433\u0440\u0443\u043f\u043f\u0430 \u0441\u043d\u043e\u0432\u0430 \u0432\u044b\u0441\u0442\u0443\u043f\u0430\u0435\u0442 \u0441 \u0441\u0438\u043c\u0444\u043e\u043d\u0438\u0447\u0435\u0441\u043a\u0438\u043c \u043e\u0440\u043a\u0435\u0441\u0442\u0440\u043e\u043c \u0421\u0430\u043d-\u0424\u0440\u0430\u043d\u0446\u0438\u0441\u043a\u043e \u043f\u043e\u0434 \u0443\u043f\u0440\u0430\u0432\u043b\u0435\u043d\u0438\u0435\u043c \u0434\u0438\u0440\u0438\u0436\u0435\u0440\u0430 \u041c\u0430\u0439\u043a\u043b\u0430 \u0422\u0438\u043b\u0441\u043e\u043d\u0430 \u0422\u043e\u043c\u0430\u0441\u0430.",
      "year": 2019,
      "poster": {
        "url": "https://st.kp.yandex.net/images/film_big/1291058.jpg",
        "previewUrl": "https://st.kp.yandex.net/images/film_iphone/iphone360_1291058.jpg"
      },
      "genres": [
        {
          "name": "\u043a\u043e\u043d\u0446\u0435\u0440\u0442"
        },
        {
          "name": "\u043c\u0443\u0437\u044b\u043a\u0430"
        }
      ],
      "countries": [
        {
          "name": "\u0421\u0428\u0410"
        }
      ],
      "alternativeName": "Metallica & San Francisco Symphony - S&M2",
      "enName": null,
      "names": [
        {
          "name": "Metallica \u0438 \u0421\u0438\u043c\u0444\u043e\u043d\u0438\u0447\u0435\u0441\u043a\u0438\u0439 \u043e\u0440\u043a\u0435\u0441\u0442\u0440 \u0421\u0430\u043d-\u0424\u0440\u0430\u043d\u0446\u0438\u0441\u043a\u043e: S&M\u00b2"
        },
        {
          "name": "Metallica & San Francisco Symphony - S&M2"
        }
      ],
      "shortDescription": null,
      "logo": {
        "url": null
      },
      "watchability": {
        "items": null
      }
    },
    {
      "id": 1112631,
      "type": "movie",
      "externalId": {
        "kpHD": null,
        "imdb": null
      },
      "name": "\u0421\u0438\u044f\u043d\u0438\u0435 \u043e\u0431\u0440\u0443\u0448\u0438\u0442\u0441\u044f \u0432\u043d\u0438\u0437",
      "rating": {
        "kp": 8.107,
        "imdb": 0,
        "filmCritics": 0,
        "russianFilmCritics": 0,
        "await": 0
      },
      "description": "\u041f\u043e\u0441\u043b\u0435\u0434\u043d\u0438\u0439 \u043a\u043e\u043d\u0446\u0435\u0440\u0442 \u00ab\u0413\u0440\u0430\u0436\u0434\u0430\u043d\u0441\u043a\u043e\u0439 \u041e\u0431\u043e\u0440\u043e\u043d\u044b\u00bb, \u0441\u043e\u0441\u0442\u043e\u044f\u0432\u0448\u0438\u0439\u0441\u044f 9 \u0444\u0435\u0432\u0440\u0430\u043b\u044f 2008 \u0433\u043e\u0434\u0430 \u0432 \u0415\u043a\u0430\u0442\u0435\u0440\u0438\u043d\u0431\u0443\u0440\u0433\u0435.",
      "votes": {
        "kp": 978,
        "imdb": 0,
        "filmCritics": 0,
        "russianFilmCritics": 1,
        "await": 103
      },
      "year": 2017,
      "poster": {
        "url": "https://st.kp.yandex.net/images/film_big/1112631.jpg",
        "previewUrl": "https://st.kp.yandex.net/images/film_iphone/iphone360_1112631.jpg"
      },
      "genres": [
        {
          "name": "\u043a\u043e\u043d\u0446\u0435\u0440\u0442"
        },
        {
          "name": "\u043c\u0443\u0437\u044b\u043a\u0430"
        }
      ],
      "countries": [
        {
          "name": "\u0420\u043e\u0441\u0441\u0438\u044f"
        },
        {
          "name": "\u0418\u0437\u0440\u0430\u0438\u043b\u044c"
        }
      ],
      "alternativeName": "",
      "enName": null,
      "names": [
        {
          "name": "\u0421\u0438\u044f\u043d\u0438\u0435 \u043e\u0431\u0440\u0443\u0448\u0438\u0442\u0441\u044f \u0432\u043d\u0438\u0437"
        }
      ],
      "movieLength": 102,
      "shortDescription": null,
      "logo": {
        "url": null
      },
      "watchability": {
        "items": null
      }
    },
    {
      "id": 4866668,
      "alternativeName": "",
      "countries": [
        {
          "name": "\u041a\u043e\u0440\u0435\u044f \u042e\u0436\u043d\u0430\u044f"
        }
      ],
      "description": "\u0423\u043d\u0438\u043a\u0430\u043b\u044c\u043d\u043e\u0435 \u0448\u043e\u0443, \u0432\u043e\u00a0\u0432\u0440\u0435\u043c\u044f \u043a\u043e\u0442\u043e\u0440\u043e\u0433\u043e BTS\u00a0\u0438 \u0410\u0420\u041c\u0418 \u0441\u0442\u0430\u043d\u0446\u0443\u044e\u0442 \u0432\u043c\u0435\u0441\u0442\u0435.",
      "enName": null,
      "externalId": {
        "kpHD": null,
        "imdb": null
      },
      "genres": [
        {
          "name": "\u043a\u043e\u043d\u0446\u0435\u0440\u0442"
        },
        {
          "name": "\u043c\u0443\u0437\u044b\u043a\u0430"
        }
      ],
      "movieLength": 195,
      "name": "BTS Permission To Dance: On Stage \u2014 Seoul",
      "names": [
        {
          "name": "BTS Permission To Dance: On Stage \u2014 Seoul"
        }
      ],
      "poster": {
        "url": "https://st.kp.yandex.net/images/film_big/4866668.jpg",
        "previewUrl": "https://st.kp.yandex.net/images/film_iphone/iphone360_4866668.jpg"
      },
      "rating": {
        "kp": 8.828,
        "imdb": 8,
        "filmCritics": 0,
        "russianFilmCritics": 0,
        "await": 0
      },
      "shortDescription": null,
      "type": "movie",
      "votes": {
        "kp": 965,
        "imdb": 17250,
        "filmCritics": 0,
        "russianFilmCritics": 0,
        "await": 637
      },
      "year": 2022,
      "logo": {
        "url": null
      },
      "watchability": {
        "items": null
      }
    },
    {
      "externalId": {
        "kpHD": null,
        "imdb": "tt5053508",
        "tmdb": 361631
      },
      "rating": {
        "kp": 8.413,
        "imdb": 8.1,
        "filmCritics": 0,
        "russianFilmCritics": 0,
        "await": 0
      },
      "votes": {
        "kp": 930,
        "imdb": 1468,
        "filmCritics": 0,
        "russianFilmCritics": 0,
        "await": 1
      },
      "movieLength": 143,
      "id": 934103,
      "type": "movie",
      "name": null,
      "description": null,
      "year": 2015,
      "poster": {
        "url": "https://st.kp.yandex.net/images/film_big/934103.jpg",
        "previewUrl": "https://st.kp.yandex.net/images/film_iphone/iphone360_934103.jpg"
      },
      "genres": [
        {
          "name": "\u043a\u043e\u043d\u0446\u0435\u0440\u0442"
        },
        {
          "name": "\u043c\u0443\u0437\u044b\u043a\u0430"
        },
        {
          "name": "\u0434\u043e\u043a\u0443\u043c\u0435\u043d\u0442\u0430\u043b\u044c\u043d\u044b\u0439"
        }
      ],
      "countries": [
        {
          "name": "\u0413\u0435\u0440\u043c\u0430\u043d\u0438\u044f"
        }
      ],
      "alternativeName": "Rammstein in Amerika",
      "enName": null,
      "names": [
        {
          "name": "Rammstein in Amerika"
        },
        {
          "name": "Rammstein: In America",
          "language": "GB",
          "type": null
        }
      ],
      "shortDescription": null,
      "logo": {
        "url": null
      },
      "watchability": {
        "items": null
      }
    },
    {
      "id": 1047383,
      "type": "tv-series",
      "externalId": {
        "kpHD": null,
        "imdb": null
      },
      "name": "\u0422\u0440\u0438 \u0430\u043a\u043a\u043e\u0440\u0434\u0430",
      "rating": {
        "kp": 5.464,
        "imdb": 0,
        "filmCritics": 0,
        "russianFilmCritics": 0,
        "await": null
      },
      "description": "\u0412\u044b\u043f\u0443\u0441\u043a\u0438 \u0448\u043e\u0443 \u043f\u043e\u0441\u0432\u044f\u0449\u0435\u043d\u044b \u0433\u043e\u0440\u043e\u0434\u0441\u043a\u043e\u043c\u0443 \u0440\u043e\u043c\u0430\u043d\u0441\u0443, \u0430\u0432\u0442\u043e\u0440\u0441\u043a\u043e\u0439 \u043f\u0435\u0441\u043d\u0435, \u043a\u0438\u043d\u043e\u0448\u043b\u044f\u0433\u0435\u0440\u0430\u043c, \u0442\u0432\u043e\u0440\u0447\u0435\u0441\u0442\u0432\u0443 \u0440\u0443\u0441\u0441\u043a\u043e\u0439 \u044d\u043c\u0438\u0433\u0440\u0430\u0446\u0438\u0438 XX \u0432\u0435\u043a\u0430 \u0438 \u0434\u0440. \u042d\u0442\u043e \u0442\u0435\u043c\u0430\u0442\u0438\u0447\u0435\u0441\u043a\u0438\u0435 \u043a\u043e\u043d\u0446\u0435\u0440\u0442\u044b, \u0432 \u043a\u043e\u0442\u043e\u0440\u044b\u0445 \u0438\u0441\u043f\u043e\u043b\u043d\u0438\u0442\u0435\u043b\u0438 \u043f\u0440\u0435\u0434\u0441\u0442\u0430\u0432\u043b\u044f\u044e\u0442 \u043d\u0430 \u0441\u0443\u0434 \u0437\u0440\u0438\u0442\u0435\u043b\u0435\u0439 \u0441\u043e\u0431\u0441\u0442\u0432\u0435\u043d\u043d\u044b\u0435 \u0438\u043d\u0442\u0435\u0440\u043f\u0440\u0435\u0442\u0430\u0446\u0438\u0438 \u0437\u043d\u0430\u043c\u0435\u043d\u0438\u0442\u044b\u0445 \u0445\u0438\u0442\u043e\u0432. \u041f\u0440\u0438 \u044d\u0442\u043e\u043c \u043c\u0435\u0436\u0434\u0443 \u0443\u0447\u0430\u0441\u0442\u043d\u0438\u043a\u0430\u043c\u0438 \u0441\u0443\u0449\u0435\u0441\u0442\u0432\u0443\u0435\u0442 \u0442\u0432\u043e\u0440\u0447\u0435\u0441\u043a\u0430\u044f \u043a\u043e\u043d\u043a\u0443\u0440\u0435\u043d\u0446\u0438\u044f. \u0415\u0441\u0442\u044c \u0438 \u0436\u044e\u0440\u0438, \u0432 \u0441\u043e\u0441\u0442\u0430\u0432 \u043a\u043e\u0442\u043e\u0440\u043e\u0433\u043e \u0432\u0445\u043e\u0434\u044f\u0442 \u043f\u0440\u0438\u0437\u043d\u0430\u043d\u043d\u044b\u0435 \u043c\u044d\u0442\u0440\u044b \u0440\u043e\u0441\u0441\u0438\u0439\u0441\u043a\u043e\u0439 \u043c\u0443\u0437\u044b\u043a\u0438. \u0416\u044e\u0440\u0438 \u043e\u0446\u0435\u043d\u0438\u0432\u0430\u0435\u0442 \u043a\u0430\u0436\u0434\u044b\u0439 \u043d\u043e\u043c\u0435\u0440, \u0430 \u043e\u0446\u0435\u043d\u043a\u0438 \u0441\u0443\u043c\u043c\u0438\u0440\u0443\u044e\u0442\u0441\u044f \u043e\u0442 \u0432\u044b\u043f\u0443\u0441\u043a\u0430 \u043a \u0432\u044b\u043f\u0443\u0441\u043a\u0443, \u0447\u0442\u043e\u0431\u044b \u0432 \u0438\u0442\u043e\u0433\u0435 \u043c\u043e\u0436\u043d\u043e \u0431\u044b\u043b\u043e \u043e\u043f\u0440\u0435\u0434\u0435\u043b\u0438\u0442\u044c \u043f\u043e\u0431\u0435\u0434\u0438\u0442\u0435\u043b\u044f \u0432\u0441\u0435\u0433\u043e \u043f\u0440\u043e\u0435\u043a\u0442\u0430.",
      "votes": {
        "kp": 912,
        "imdb": 0,
        "filmCritics": 0,
        "russianFilmCritics": 0,
        "await": 0
      },
      "year": 2014,
      "poster": null,
      "genres": [
        {
          "name": "\u043c\u0443\u0437\u044b\u043a\u0430"
        },
        {
          "name": "\u043a\u043e\u043d\u0446\u0435\u0440\u0442"
        },
        {
          "name": "\u0441\u0435\u043c\u0435\u0439\u043d\u044b\u0439"
        }
      ],
      "countries": [
        {
          "name": "\u0420\u043e\u0441\u0441\u0438\u044f"
        }
      ],
      "alternativeName": null,
      "enName": null,
      "names": [
        {
          "name": "\u0422\u0440\u0438 \u0430\u043a\u043a\u043e\u0440\u0434\u0430"
        }
      ],
      "movieLength": null,
      "shortDescription": null,
      "logo": {
        "url": null
      },
      "watchability": {
        "items": null
      },
      "releaseYears": [
        {
          "start": 2014,
          "end": 2014
        }
      ]
    }
  ],
  "total": 164,
  "limit": 10,
  "page": 3,
  "pages": 17
}