{
  "docs": [
    {
      "id": 429069,
      "countries": [
        {
          "name": "\u0421\u0428\u0410"
        }
      ],
      "genres": [
        {
          "name": "\u043a\u043e\u043d\u0446\u0435\u0440\u0442"
        },
        {
          "name": "\u043c\u0443\u0437\u044b\u043a\u0430"
        }
      ],
      "names": [
        {
          "name": "Linkin Park: \u0414\u043e\u0440\u043e\u0433\u0430 \u043a \u0440\u0435\u0432\u043e\u043b\u044e\u0446\u0438\u0438 (\u0436\u0438\u0432\u043e\u0439 \u043a\u043e\u043d\u0446\u0435\u0440\u0442 \u0432 \u041c\u0438\u043b\u0442\u043e\u043d \u041a\u0435\u0439\u043d\u0437)"
        },
        {
          "name": "Linkin Park: Road to Revolution: Live at Milton Keynes"
        }
      ],
      "alternativeName": "Linkin Park: Road to Revolution: Live at Milton Keynes",
      "description": "\u0417\u0430\u043f\u0438\u0441\u044c \u043a\u043e\u043d\u0446\u0435\u0440\u0442\u0430 \u0433\u0440\u0443\u043f\u043f\u044b Linkin Park 26 \u0438\u044e\u043b\u044f 2008 \u0433\u043e\u0434\u0430 \u0432 \u0430\u043d\u0433\u043b\u0438\u0439\u0441\u043a\u043e\u043c \u0433\u043e\u0440\u043e\u0434\u0435 \u041c\u0438\u043b\u0442\u043e\u043d \u041a\u0435\u0439\u043d\u0437. \u042f\u0432\u043b\u044f\u044f\u0441\u044c \u0447\u0430\u0441\u0442\u044c\u044e \u0442\u0443\u0440\u0430 Project Revolution, \u044d\u0442\u043e\u0442 \u043a\u043e\u043d\u0446\u0435\u0440\u0442 \u0441\u0442\u0430\u043b \u043e\u0434\u043d\u0438\u043c \u0438\u0437 \u043a\u0440\u0443\u043f\u043d\u0435\u0439\u0448\u0438\u0445 \u0438 \u043b\u0443\u0447\u0448\u0438\u0445 \u0432 \u043b\u0435\u0442\u043d\u0435\u043c \u0442\u0443\u0440\u0435 \u0433\u0440\u0443\u043f\u043f\u044b 2008 \u0433\u043e\u0434\u0430. \u0422\u044b\u0441\u044f\u0447\u0438 \u043a\u0438\u043b\u043e\u0432\u0430\u0442\u0442 \u0437\u0432\u0443\u043a\u0430, \u043e\u0433\u0440\u043e\u043c\u043d\u044b\u0435 \u0442\u043e\u043b\u043f\u044b \u0444\u0430\u043d\u0430\u0442\u043e\u0432 \u043d\u0430 \u043a\u0440\u0443\u043f\u043d\u0435\u0439\u0448\u0435\u0439 \u043a\u043e\u043d\u0446\u0435\u0440\u0442\u043d\u043e\u0439 \u043f\u043b\u043e\u0449\u0430\u0434\u043a\u0435 \u0415\u0432\u0440\u043e\u043f\u044b - \u0438 \u0432\u043e\u0441\u0435\u043c\u043d\u0430\u0434\u0446\u0430\u0442\u044c \u0431\u0435\u0441\u0441\u043f\u043e\u0440\u043d\u044b\u0445 \u0445\u0438\u0442\u043e\u0432 \u043e\u0434\u043d\u043e\u0439 \u0438\u0437 \u0441\u0430\u043c\u044b\u0445 \u043f\u043e\u043f\u0443\u043b\u044f\u0440\u043d\u044b\u0445 \u0440\u043e\u043a-\u0433\u0440\u0443\u043f\u043f \u0441\u043e\u0432\u0440\u0435\u043c\u0435\u043d\u043d\u043e\u0441\u0442\u0438 - \u044d\u0442\u043e Road To Revolution.",
      "enName": null,
      "externalId": {
        "kpHD": null,
        "imdb": "tt1305710",
        "tmdb": 29147
      },
      "movieLength": 86,
      "name": "Linkin Park: \u0414\u043e\u0440\u043e\u0433\u0430 \u043a \u0440\u0435\u0432\u043e\u043b\u044e\u0446\u0438\u0438 (\u0436\u0438\u0432\u043e\u0439 \u043a\u043e\u043d\u0446\u0435\u0440\u0442 \u0432 \u041c\u0438\u043b\u0442\u043e\u043d \u041a\u0435\u0439\u043d\u0437)",
      "poster": {
        "url": "https://st.kp.yandex.net/images/film_big/429069.jpg",
        "previewUrl": "https://st.kp.yandex.net/images/film_iphone/iphone360_429069.jpg"
      },
      "rating": {
        "kp": 8.248,
        "imdb": 8.8,
        "filmCritics": 0,
        "russianFilmCritics": 0,
        "await": 0
      },
      "shortDescription": null,
      "type": "movie",
      "votes": {
        "kp": 3260,
        "imdb": 388,
        "filmCritics": 0,
        "russianFilmCritics": 0,
        "await": 0
      },
      "year": 2008,
      "logo": {
        "url": null
      },
      "watchability": {
        "items": null
      }
    },
    {
      "externalId": {
        "kpHD": null,
        "imdb": "tt9151704",
        "tmdb": 553512
      },
      "rating": {
        "kp": 8.533,
        "imdb": 8.5,
        "filmCritics": 6,
        "russianFilmCritics": 0,
        "await": 0
      },
      "votes": {
        "kp": 2791,
        "imdb": 3998,
        "filmCritics": 549,
        "russianFilmCritics": 0,
        "await": 65
      },
      "movieLength": 84,
      "id": 1200750,
      "type": "movie",
      "name": "\u0412\u044b\u0436\u0433\u0438 \u0441\u0446\u0435\u043d\u0443: \u0424\u0438\u043b\u044c\u043c",
      "description": "\u041c\u0438\u0440\u043e\u0432\u043e\u0439 \u0442\u0443\u0440 2017 \u0433\u043e\u0434\u0430 k-pop-\u0433\u0440\u0443\u043f\u043f\u044b BTS.",
      "year": 2018,
      "poster": {
        "url": "https://st.kp.yandex.net/images/film_big/1200750.jpg",
        "previewUrl": "https://st.kp.yandex.net/images/film_iphone/iphone360_1200750.jpg"
      },
      "genres": [
        {
          "name": "\u0434\u043e\u043a\u0443\u043c\u0435\u043d\u0442\u0430\u043b\u044c\u043d\u044b\u0439"
        },
        {
          "name": "\u043c\u0443\u0437\u044b\u043a\u0430"
        },
        {
          "name": "\u043a\u043e\u043d\u0446\u0435\u0440\u0442"
        }
      ],
      "countries": [
        {
          "name": "\u041a\u043e\u0440\u0435\u044f \u042e\u0436\u043d\u0430\u044f"
        }
      ],
      "alternativeName": "Burn the Stage: The Movie",
      "enName": null,
      "names": [
        {
          "name": "\u0412\u044b\u0436\u0433\u0438 \u0441\u0446\u0435\u043d\u0443: \u0424\u0438\u043b\u044c\u043c"
        },
        {
          "name": "Burn the Stage: The Movie"
        },
        {
          "name": "Concert - Burn the Stage: The Movie",
          "language": "NL",
          "type": "Dutch movie theater title"
        },
        {
          "name": "\u9632\u5f39\u5c11\u5e74\u56e2\uff1a\u71c3\u70e7\u821e\u53f0\u7535\u5f71\u7248",
          "language": "CN",
          "type": null
        }
      ],
      "shortDescription": null,
      "logo": {
        "url": null
      },
      "watchability": {
        "items": null
      }
    },
    {
      "id": 1043228,
      "countries": [
        {
          "name": "\u0412\u0435\u043b\u0438\u043a\u043e\u0431\u0440\u0438\u0442\u0430\u043d\u0438\u044f"
        }
      ],
      "genres": [
        {
          "name": "\u043a\u043e\u043d\u0446\u0435\u0440\u0442"
        },
        {
          "name": "\u043c\u0443\u0437\u044b\u043a\u0430"
        },
        {
          "name": "\u0434\u043e\u043a\u0443\u043c\u0435\u043d\u0442\u0430\u043b\u044c\u043d\u044b\u0439"
        }
      ],
      "names": [
        {
          "name": "Rammstein: Paris!"
        },
        {
          "name": "Rammstein: Paris"
        }
      ],
      "alternativeName": "Rammstein: Paris",
      "description": "\u041a\u043e\u043d\u0446\u0435\u0440\u0442\u043d\u044b\u0439 \u0444\u0438\u043b\u044c\u043c, \u0437\u0430\u043f\u0438\u0441\u0430\u043d\u043d\u044b\u0439 \u043d\u0430 \u0432\u044b\u0441\u0442\u0443\u043f\u043b\u0435\u043d\u0438\u044f\u0445 \u0433\u0440\u0443\u043f\u043f\u044b Rammstein \u0432 \u041f\u0430\u0440\u0438\u0436\u0435 6 \u0438 7 \u043c\u0430\u0440\u0442\u0430 2012 \u0433\u043e\u0434\u0430 \u0432 \u0440\u0430\u043c\u043a\u0430\u0445 \u0442\u0443\u0440\u0430 \u00abMade in Germany\u00bb.",
      "enName": null,
      "externalId": {
        "kpHD": null,
        "imdb": null
      },
      "movieLength": 98,
      "name": "Rammstein: Paris!",
      "poster": {
        "url": "https://st.kp.yandex.net/images/film_big/1043228.jpg",
        "previewUrl": "https://st.kp.yandex.net/images/film_iphone/iphone360_1043228.jpg"
      },
      "rating": {
        "kp": 8.553,
        "imdb": 8.2,
        "filmCritics": 0,
        "russianFilmCritics": 0,
        "await": 0
      },
      "shortDescription": null,
      "type": "movie",
      "votes": {
        "kp": 2637,
        "imdb": 1955,
        "filmCritics": 0,
        "russianFilmCritics": 0,
        "await": 0
      },
      "year": 2017,
      "logo": {
        "url": null
      },
      "watchability": {
        "items": null
      }
    },
    {
      "externalId": {
        "kpHD": null,
        "imdb": "tt8943440"
      },
      "rating": {
        "kp": 7.138,
        "imdb": 6,
        "filmCritics": 0,
        "russianFilmCritics": 0,
        "await": 0
      },
      "votes": {
        "kp": 2370,
        "imdb": 40,
        "filmCritics": 0,
        "russianFilmCritics": 0,
        "await": 0
      },
      "movieLength": 97,
      "id": 1199958,
      "type": "movie",
      "name": "\u0414\u0430\u043d\u0438\u043b\u0430 \u041f\u043e\u043f\u0435\u0440\u0435\u0447\u043d\u044b\u0439: \u041d\u0435\u043b\u0438\u0446\u0435\u043f\u0440\u0438\u044f\u0442\u043d\u044b\u0439",
      "description": "\u041a\u043e\u043c\u0438\u043a \u043e\u0431\u0441\u0443\u0436\u0434\u0430\u0435\u0442 \u0432\u044b\u0431\u043e\u0440\u044b \u043f\u0440\u0435\u0437\u0438\u0434\u0435\u043d\u0442\u0430, \u0433\u0430\u0434\u0436\u0435\u0442\u044b, \u0448\u043a\u043e\u043b\u044c\u043d\u0438\u043a\u043e\u0432, \u0441\u0432\u043e\u044e \u043b\u0438\u0447\u043d\u0443\u044e \u0436\u0438\u0437\u043d\u044c \u0438 \u0434\u0440\u0443\u0433\u0438\u0435 \u0442\u0435\u043c\u044b.",
      "year": 2018,
      "poster": {
        "url": "https://st.kp.yandex.net/images/film_big/1199958.jpg",
        "previewUrl": "https://st.kp.yandex.net/images/film_iphone/iphone360_1199958.jpg"
      },
      "genres": [
        {
          "name": "\u043a\u043e\u043c\u0435\u0434\u0438\u044f"
        },
        {
          "name": "\u043a\u043e\u043d\u0446\u0435\u0440\u0442"
        }
      ],
      "countries": [
        {
          "name": "\u0420\u043e\u0441\u0441\u0438\u044f"
        }
      ],
      "alternativeName": null,
      "enName": null,
      "names": [
        {
          "name": "\u0414\u0430\u043d\u0438\u043b\u0430 \u041f\u043e\u043f\u0435\u0440\u0435\u0447\u043d\u044b\u0439: \u041d\u0435\u043b\u0438\u0446\u0435\u043f\u0440\u0438\u044f\u0442\u043d\u044b\u0439"
        }
      ],
      "shortDescription": null,
      "logo": {
        "url": null
      },
      "watchability": {
        "items": null
      }
    },
    {
      "id": 156956,
      "type": "movie",
      "externalId": {
        "kpHD": null,
        "imdb": null
      },
      "name": "\u041f\u0438\u043d\u043a \u0424\u043b\u043e\u0439\u0434: \u041a\u043e\u043d\u0446\u0435\u0440\u0442 \u0432 \u041f\u043e\u043c\u043f\u0435\u0438",
      "rating": {
        "kp": 8.661,
        "imdb": 8.6,
        "filmCritics": 0,
        "russianFilmCritics": 0,
        "await": 0
      },
      "description": null,
      "votes": {
        "kp": 1987,
        "imdb": 9350,
        "filmCritics": 0,
        "russianFilmCritics": 0,
        "await": 0
      },
      "year": 1972,
      "poster": {
        "url": "https://st.kp.yandex.net/images/film_big/156956.jpg",
        "previewUrl": "https://st.kp.yandex.net/images/film_iphone/iphone360_156956.jpg"
      },
      "genres": [
        {
          "name": "\u043a\u043e\u043d\u0446\u0435\u0440\u0442"
        }
      ],
      "countries": [
        {
          "name": "\u0411\u0435\u043b\u044c\u0433\u0438\u044f"
        },
        {
          "name": "\u0413\u0435\u0440\u043c\u0430\u043d\u0438\u044f (\u0424\u0420\u0413)"
        },
        {
          "name": "\u0424\u0440\u0430\u043d\u0446\u0438\u044f"
        }
      ],
      "alternativeName": "Pink Floyd: Live at Pompeii",
      "enName": null,
      "names": [
        {
          "name": "\u041f\u0438\u043d\u043a \u0424\u043b\u043e\u0439\u0434: \u041a\u043e\u043d\u0446\u0435\u0440\u0442 \u0432 \u041f\u043e\u043c\u043f\u0435\u0438"
        },
        {
          "name": "Pink Floyd: Live at Pompeii"
        }
      ],
      "movieLength": 65,
      "shortDescription": null,
      "logo": {
        "url": null
      },
      "watchability": {
        "items": null
      }
    },
    {
      "id": 1398916,
      "countries": [
        {
          "name": "\u041a\u043e\u0440\u0435\u044f \u042e\u0436\u043d\u0430\u044f"
        }
      ],
      "genres": [
        {
          "name": "\u043c\u0443\u0437\u044b\u043a\u0430"
        },
        {
          "name": "\u0434\u043e\u043a\u0443\u043c\u0435\u043d\u0442\u0430\u043b\u044c\u043d\u044b\u0439"
        },
        {
          "name": "\u043a\u043e\u043d\u0446\u0435\u0440\u0442"
        }
      ],
      "names": [
        {
          "name": "BTS: \u0420\u0430\u0437\u0431\u0435\u0439 \u0442\u0438\u0448\u0438\u043d\u0443: \u0424\u0438\u043b\u044c\u043c"
        },
        {
          "name": "Break the Silence: The Movie"
        },
        {
          "name": "Break the silence",
          "language": "ES",
          "type": null
        },
        {
          "name": "BTS Break the Silence: The Movie",
          "language": "ES",
          "type": null
        }
      ],
      "alternativeName": "Break the Silence: The Movie",
      "description": "\u041f\u043e\u0441\u043b\u0435 \u0437\u0430\u0432\u0435\u0440\u0448\u0435\u043d\u0438\u044f \u043c\u0438\u0440\u043e\u0432\u043e\u0433\u043e \u0442\u0443\u0440\u0430 \u00abLove Yourself: Speak Yourself\u00bb BTS \u043f\u043e\u043f\u0430\u043b\u0438 \u0432 \u0442\u043e\u043f \u0447\u0430\u0440\u0442\u0430 Billboard Boxscore \u0438 \u0441\u0442\u0430\u043b\u0438 \u043f\u0435\u0440\u0432\u043e\u0439 \u043a\u043e\u0440\u0435\u0439\u0441\u043a\u043e\u0439 \u0433\u0440\u0443\u043f\u043f\u043e\u0439 \u0432 \u0438\u0441\u0442\u043e\u0440\u0438\u0438, \u0432\u044b\u0441\u0442\u0443\u043f\u0438\u0432\u0448\u0435\u0439 \u043d\u0430 \u0441\u0442\u0430\u0434\u0438\u043e\u043d\u0435 \u0423\u044d\u043c\u0431\u043b\u0438 \u0432 \u041b\u043e\u043d\u0434\u043e\u043d\u0435. \u0412 \u0440\u0430\u043c\u043a\u0430\u0445 \u0442\u0443\u0440\u0430 \u043a\u043e\u043d\u0446\u0435\u0440\u0442\u044b \u043f\u0440\u043e\u0448\u043b\u0438 \u0432 \u041b\u043e\u0441-\u0410\u043d\u0434\u0436\u0435\u043b\u0435\u0441\u0435, \u0427\u0438\u043a\u0430\u0433\u043e, \u041d\u044c\u044e-\u0419\u043e\u0440\u043a\u0435, \u0421\u0430\u043d-\u041f\u0430\u0443\u043b\u0443, \u041b\u043e\u043d\u0434\u043e\u043d\u0435, \u041f\u0430\u0440\u0438\u0436\u0435, \u041e\u0441\u0430\u043a\u0435, \u0421\u0438\u0434\u0437\u0443\u043e\u043a\u0435, \u042d\u0440-\u0420\u0438\u044f\u0434\u0435 \u0438 \u0421\u0435\u0443\u043b\u0435.\n\n\u042d\u0442\u043e\u0442 \u0434\u043e\u043a\u0443\u043c\u0435\u043d\u0442\u0430\u043b\u044c\u043d\u044b\u0439 \u0444\u0438\u043b\u044c\u043c \u0434\u0430\u0435\u0442 \u0434\u043e\u0441\u0442\u0443\u043f \u043a \u043a\u0430\u0434\u0440\u0430\u043c \u0437\u0430 \u0441\u0446\u0435\u043d\u043e\u0439, \u0441\u043b\u0435\u0434\u0443\u044f \u0448\u0430\u0433 \u0437\u0430 \u0448\u0430\u0433\u043e\u043c \u0441 \u0443\u0447\u0430\u0441\u0442\u043d\u0438\u043a\u0430\u043c\u0438 \u0433\u0440\u0443\u043f\u043f\u044b \u043f\u043e \u0432\u0441\u0435\u043c \u0433\u043e\u0440\u043e\u0434\u0430\u043c \u0442\u0443\u0440\u0430. \u0417\u0430 \u043a\u0443\u043b\u0438\u0441\u0430\u043c\u0438 BTS \u043f\u0440\u0435\u0434\u0441\u0442\u0430\u043d\u0443\u0442 c \u043d\u043e\u0432\u043e\u0439 \u0441\u0442\u043e\u0440\u043e\u043d\u044b. \u0423\u0447\u0430\u0441\u0442\u043d\u0438\u043a\u0438 \u043a\u043e\u043b\u043b\u0435\u043a\u0442\u0438\u0432\u0430 \u043e\u0442\u043a\u0440\u043e\u0432\u0435\u043d\u043d\u043e \u0434\u0435\u043b\u044f\u0442\u0441\u044f \u043b\u0438\u0447\u043d\u044b\u043c\u0438 \u0438\u0441\u0442\u043e\u0440\u0438\u044f\u043c\u0438, \u043a\u043e\u0442\u043e\u0440\u044b\u0435 \u0434\u043e \u044d\u0442\u043e\u0433\u043e \u043d\u0438\u043a\u043e\u0433\u0434\u0430 \u043d\u0435 \u043f\u0440\u043e\u0438\u0437\u043d\u043e\u0441\u0438\u043b\u0438\u0441\u044c \u0432\u0441\u043b\u0443\u0445.",
      "enName": null,
      "externalId": {
        "kpHD": null,
        "imdb": "tt12850582",
        "tmdb": 730647
      },
      "movieLength": 90,
      "name": "BTS: \u0420\u0430\u0437\u0431\u0435\u0439 \u0442\u0438\u0448\u0438\u043d\u0443: \u0424\u0438\u043b\u044c\u043c",
      "poster": {
        "url": "https://st.kp.yandex.net/images/film_big/1398916.jpg",
        "previewUrl": "https://st.kp.yandex.net/images/film_iphone/iphone360_1398916.jpg"
      },
      "rating": {
        "kp": 8.461,
        "imdb": 8.1,
        "filmCritics": 0,
        "russianFilmCritics": 0,
        "await": 77.78
      },
      "shortDescription": null,
      "type": "movie",
      "votes": {
        "kp": 1873,
        "imdb": 1990,
        "filmCritics": 0,
        "russianFilmCritics": 0,
        "await": 611
      },
      "year": 2020,
      "logo": {
        "url": null
      },
      "watchability": {
        "items": null
      }
    },
    {
      "id": 807413,
      "type": "movie",
      "externalId": {
        "kpHD": null,
        "imdb": "tt3411614",
        "tmdb": 240237
      },
      "name": "Muse \u2014 Live in Rome",
      "rating": {
        "kp": 8.696,
        "imdb": 8.9,
        "filmCritics": 0,
        "russianFilmCritics": 0,
        "await": 97.16
      },
      "description": "\u041a\u043e\u043d\u0446\u0435\u0440\u0442 \u00abThe Unsustainable Tour\u00bb \u0441 \u0430\u0443\u0434\u0438\u0442\u043e\u0440\u0438\u0435\u0439 \u0431\u043e\u043b\u0435\u0435 \u0447\u0435\u043c \u0432 60 \u0442\u044b\u0441\u044f\u0447 \u0447\u0435\u043b\u043e\u0432\u0435\u043a \u0441\u043e\u0441\u0442\u043e\u044f\u043b\u0441\u044f \u0432 \u0438\u044e\u043b\u0435 2013 \u0433\u043e\u0434\u0430 \u043d\u0430 \u043b\u0435\u0433\u0435\u043d\u0434\u0430\u0440\u043d\u043e\u043c \u0438\u0442\u0430\u043b\u044c\u044f\u043d\u0441\u043a\u043e\u043c \u0441\u0442\u0430\u0434\u0438\u043e\u043d\u0435 Olympic Stadium \u0432 \u0420\u0438\u043c\u0435. \u0428\u043e\u0443, \u0441 \u043a\u043e\u0442\u043e\u0440\u044b\u043c \u0433\u0440\u0443\u043f\u043f\u0430 \u043e\u0431\u044a\u0435\u0445\u0430\u043b\u0430 \u0432\u0441\u0435 \u0433\u043b\u0430\u0432\u043d\u044b\u0435 \u043a\u043e\u043d\u0446\u0435\u0440\u0442\u043d\u044b\u0435 \u043f\u043b\u043e\u0449\u0430\u0434\u043a\u0438 \u043c\u0438\u0440\u0430.",
      "votes": {
        "kp": 1759,
        "imdb": 551,
        "filmCritics": 0,
        "russianFilmCritics": 0,
        "await": 346
      },
      "year": 2013,
      "poster": {
        "url": "https://st.kp.yandex.net/images/film_big/807413.jpg",
        "previewUrl": "https://st.kp.yandex.net/images/film_iphone/iphone360_807413.jpg"
      },
      "genres": [
        {
          "name": "\u043a\u043e\u043d\u0446\u0435\u0440\u0442"
        },
        {
          "name": "\u043c\u0443\u0437\u044b\u043a\u0430"
        }
      ],
      "countries": [
        {
          "name": "\u0421\u0428\u0410"
        }
      ],
      "alternativeName": "Muse - Live in Rome",
      "enName": null,
      "names": [
        {
          "name": "Muse \u2014 Live in Rome"
        },
        {
          "name": "Muse - Live in Rome"
        },
        {
          "name": "Muse - Live at Rome Olympic Stadium",
          "language": "DE",
          "type": "TV"
        },
        {
          "name": "Muse\u7f57\u9a6c\u5965\u6797\u5339\u514b\u4f53\u80b2\u573a\u6f14\u5531\u4f1a",
          "language": "CN",
          "type": null
        }
      ],
      "movieLength": 95,
      "shortDescription": null,
      "logo": {
        "url": null
      },
      "watchability": {
        "items": null
      }
    },
    {
      "externalId": {
        "kpHD": null,
        "imdb": "tt1922612"
      },
      "rating": {
        "kp": 7.639,
        "imdb": 5.5,
        "filmCritics": 5.8,
        "russianFilmCritics": 0,
        "await": 89.49
      },
      "votes": {
        "kp": 1666,
        "imdb": 5938,
        "filmCritics": 91,
        "russianFilmCritics": 0,
        "await": 719
      },
      "movieLength": 84,
      "id": 586460,
      "type": "movie",
      "name": "\u0425\u043e\u0440. \u0416\u0438\u0432\u043e\u0439 \u043a\u043e\u043d\u0446\u0435\u0440\u0442 \u0432 3D",
      "description": "\u0424\u0438\u043b\u044c\u043c-\u043a\u043e\u043d\u0446\u0435\u0440\u0442, \u0441\u043d\u044f\u0442\u044b\u0439 \u0432\u043e \u0432\u0440\u0435\u043c\u044f \u043b\u0435\u0442\u043d\u0435\u0433\u043e \u0442\u0443\u0440\u0430 \u0437\u0432\u0435\u0437\u0434 \u0441\u0435\u0440\u0438\u0430\u043b\u0430. \u0424\u0430\u043d\u0430\u0442\u044b \u0443\u0432\u0438\u0434\u044f\u0442 \u043d\u0435 \u0442\u043e\u043b\u044c\u043a\u043e \u043c\u0443\u0437\u044b\u043a\u0430\u043b\u044c\u043d\u044b\u0435 \u043d\u043e\u043c\u0435\u0440\u0430, \u043d\u043e \u0438 \u0441\u0430\u043c\u043e\u0435 \u0438\u043d\u0442\u0435\u0440\u0435\u0441\u043d\u043e\u0435 - \u0437\u0430\u043a\u0443\u043b\u0438\u0441\u044c\u0435.",
      "year": 2011,
      "poster": {
        "url": "https://st.kp.yandex.net/images/film_big/586460.jpg",
        "previewUrl": "https://st.kp.yandex.net/images/film_iphone/iphone360_586460.jpg"
      },
      "genres": [
        {
          "name": "\u043a\u043e\u043d\u0446\u0435\u0440\u0442"
        },
        {
          "name": "\u043c\u0443\u0437\u044b\u043a\u0430"
        },
        {
          "name": "\u0434\u043e\u043a\u0443\u043c\u0435\u043d\u0442\u0430\u043b\u044c\u043d\u044b\u0439"
        }
      ],
      "countries": [
        {
          "name": "\u0421\u0428\u0410"
        }
      ],
      "alternativeName": "Glee: The 3D Concert Movie",
      "enName": null,
      "names": [
        {
          "name": "\u0425\u043e\u0440. \u0416\u0438\u0432\u043e\u0439 \u043a\u043e\u043d\u0446\u0435\u0440\u0442 \u0432 3D"
        },
        {
          "name": "Glee: The 3D Concert Movie"
        }
      ],
      "shortDescription": null,
      "logo": {
        "url": null
      },
      "watchability": {
        "items": null
      }
    },
    {
      "id": 847406,
      "type": "movie",
      "externalId": {
        "kpHD": null,
        "imdb": null
      },
      "name": "\u0420\u043e\u0434\u0436\u0435\u0440 \u0423\u043e\u0442\u0435\u0440\u0441: The Wall",
      "rating": {
        "kp": 8.541,
        "imdb": 8.5,
        "filmCritics": 0,
        "russianFilmCritics": 0,
        "await": 94.17
      },
      "description": "\u0424\u0438\u043b\u044c\u043c \u043f\u0440\u0435\u0434\u0441\u0442\u0430\u0432\u043b\u044f\u0435\u0442 \u0441\u043e\u0431\u043e\u0439 \u0443\u043d\u0438\u043a\u0430\u043b\u044c\u043d\u044b\u0439 \u0441\u043f\u043b\u0430\u0432 \u0440\u0435\u0441\u0442\u0430\u0432\u0440\u0438\u0440\u043e\u0432\u0430\u043d\u043d\u044b\u0445 \u043a\u043e\u043d\u0446\u0435\u0440\u0442\u043d\u044b\u0445 \u0441\u044a\u0435\u043c\u043e\u043a, \u0434\u043e\u043a\u0443\u043c\u0435\u043d\u0442\u0430\u043b\u044c\u043d\u043e\u0439 \u0445\u0440\u043e\u043d\u0438\u043a\u0438, \u0430\u043d\u0438\u043c\u0430\u0446\u0438\u043e\u043d\u043d\u044b\u0445 \u0444\u0440\u0430\u0433\u043c\u0435\u043d\u0442\u043e\u0432 \u0438 \u0441\u0430\u043c\u044b\u0445 \u043f\u0435\u0440\u0435\u0434\u043e\u0432\u044b\u0445 \u0442\u0435\u0445\u043d\u043e\u043b\u043e\u0433\u0438\u0439 \u0432\u0438\u0437\u0443\u0430\u043b\u044c\u043d\u043e\u0433\u043e \u0438\u0437\u043e\u0431\u0440\u0430\u0436\u0435\u043d\u0438\u044f \u0438 \u0441\u043f\u0435\u0446-\u044d\u0444\u0444\u0435\u043a\u0442\u043e\u0432, \u0420\u043e\u0434\u0436\u0435\u0440 \u0423\u043e\u0442\u0435\u0440\u0441 \u0442\u0430\u043a\u0436\u0435 \u0432\u043a\u043b\u044e\u0447\u0438\u043b \u043a\u0430\u0434\u0440\u044b \u0438\u0437 \u0441\u0432\u043e\u0435\u0439 \u0430\u0432\u0442\u043e\u0431\u0438\u043e\u0433\u0440\u0430\u0444\u0438\u0438.",
      "votes": {
        "kp": 1555,
        "imdb": 5198,
        "filmCritics": 0,
        "russianFilmCritics": 2,
        "await": 385
      },
      "year": 2014,
      "poster": {
        "url": "https://st.kp.yandex.net/images/film_big/847406.jpg",
        "previewUrl": "https://st.kp.yandex.net/images/film_iphone/iphone360_847406.jpg"
      },
      "genres": [
        {
          "name": "\u043c\u0443\u0437\u044b\u043a\u0430"
        },
        {
          "name": "\u043a\u043e\u043d\u0446\u0435\u0440\u0442"
        },
        {
          "name": "\u0434\u043e\u043a\u0443\u043c\u0435\u043d\u0442\u0430\u043b\u044c\u043d\u044b\u0439"
        }
      ],
      "countries": [
        {
          "name": "\u0412\u0435\u043b\u0438\u043a\u043e\u0431\u0440\u0438\u0442\u0430\u043d\u0438\u044f"
        }
      ],
      "alternativeName": "Roger Waters: The Wall",
      "enName": null,
      "movieLength": 170,
      "names": [
        {
          "name": "\u0420\u043e\u0434\u0436\u0435\u0440 \u0423\u043e\u0442\u0435\u0440\u0441: The Wall"
        },
        {
          "name": "Roger Waters: The Wall"
        }
      ],
      "shortDescription": null,
      "logo": {
        "url": null
      },
      "watchability": {
        "items": [
          {
            "name": "\u0418\u0432\u0438",
            "logo": {
              "url": "https://avatars.mds.yandex.net/get-ott/2419418/0dfd1724-848f-4725-9160-abc571f41c11/orig"
            },
            "url": "https://www.ivi.ru/watch/138469?utm_source=yandex&utm_medium=wizard"
          }
        ]
      }
    },
    {
      "id": 818688,
      "externalId": {
        "kpHD": null
      },
      "name": "\u0414\u0436\u0438\u043c\u043c\u0438 \u041a\u0430\u0440\u0440: \u0421\u043c\u0435\u044f\u0441\u044c \u0438 \u0448\u0443\u0442\u044f",
      "alternativeName": "Jimmy Carr: Laughing and Joking",
      "enName": null,
      "names": [
        {
          "name": "\u0414\u0436\u0438\u043c\u043c\u0438 \u041a\u0430\u0440\u0440: \u0421\u043c\u0435\u044f\u0441\u044c \u0438 \u0448\u0443\u0442\u044f"
        },
        {
          "name": "Jimmy Carr: Laughing and Joking"
        }
      ],
      "type": "movie",
      "year": 2013,
      "description": "\u041a\u043e\u043d\u0446\u0435\u0440\u0442 \u0414\u0436\u0438\u043c\u043c\u0438 \u041a\u0430\u0440\u0440\u0430, \u0437\u0430\u043f\u0438\u0441\u0430\u043d\u043d\u044b\u0439 \u0432 \u041b\u043e\u043d\u0434\u043e\u043d\u0435 \u0432 2013 \u0433\u043e\u0434\u0443.",
      "shortDescription": null,
      "rating": {
        "kp": 7.808,
        "imdb": 7.8,
        "filmCritics": 0,
        "russianFilmCritics": 0,
        "await": 0
      },
      "votes": {
        "kp": 1262,
        "imdb": 1207,
        "filmCritics": 0,
        "russianFilmCritics": 0,
        "await": 0
      },
      "movieLength": 92,
      "poster": {
        "url": "https://st.kp.yandex.net/images/film_big/818688.jpg",
        "previewUrl": "https://st.kp.yandex.net/images/film_iphone/iphone360_818688.jpg"
      },
      "genres": [
        {
          "name": "\u043a\u043e\u043c\u0435\u0434\u0438\u044f"
        },
        {
          "name": "\u043a\u043e\u043d\u0446\u0435\u0440\u0442"
        }
      ],
      "countries": [
        {
          "name": "\u0412\u0435\u043b\u0438\u043a\u043e\u0431\u0440\u0438\u0442\u0430\u043d\u0438\u044f"
        }
      ],
      "watchability": {
        "items": null
      },
      "releaseYears": []
    }
  ],
  "total": 164,
  "limit": 10,
  "page": 2,
  "pages": 17
}