{
  "docs": [
    {
      "id": 840646,
      "type": "tv-series",
      "externalId": {
        "kpHD": null,
        "imdb": "tt3752978"
      },
      "name": "\u0427\u0435\u043c\u043f\u0438\u043e\u043d\u0430\u0442 \u043c\u0438\u0440\u0430 \u043f\u043e \u0444\u0443\u0442\u0431\u043e\u043b\u0443 2014",
      "rating": {
        "kp": 8.212,
        "imdb": 7.9,
        "filmCritics": 0,
        "russianFilmCritics": 0,
        "await": null
      },
      "description": "20-\u0439 \u0447\u0435\u043c\u043f\u0438\u043e\u043d\u0430\u0442 \u043c\u0438\u0440\u0430 \u043f\u043e \u0444\u0443\u0442\u0431\u043e\u043b\u0443 \u0424\u0418\u0424\u0410, \u043c\u0435\u0441\u0442\u043e\u043c \u043f\u0440\u043e\u0432\u0435\u0434\u0435\u043d\u0438\u044f \u043a\u043e\u0442\u043e\u0440\u043e\u0433\u043e \u0441\u0442\u0430\u043b\u0430 \u0411\u0440\u0430\u0437\u0438\u043b\u0438\u044f.",
      "votes": {
        "kp": 3152,
        "imdb": 919,
        "filmCritics": 0,
        "russianFilmCritics": 0,
        "await": 1
      },
      "year": 2014,
      "poster": {
        "url": "https://st.kp.yandex.net/images/film_big/840646.jpg",
        "previewUrl": "https://st.kp.yandex.net/images/film_iphone/iphone360_840646.jpg"
      },
      "genres": [
        {
          "name": "\u0441\u043f\u043e\u0440\u0442"
        },
        {
          "name": "\u0434\u043e\u043a\u0443\u043c\u0435\u043d\u0442\u0430\u043b\u044c\u043d\u044b\u0439"
        },
        {
          "name": "\u0446\u0435\u0440\u0435\u043c\u043e\u043d\u0438\u044f"
        }
      ],
      "countries": [
        {
          "name": "\u0411\u0440\u0430\u0437\u0438\u043b\u0438\u044f"
        }
      ],
      "alternativeName": "2014 FIFA World Cup Brazil",
      "enName": null,
      "movieLength": null,
      "names": [
        {
          "name": "\u0427\u0435\u043c\u043f\u0438\u043e\u043d\u0430\u0442 \u043c\u0438\u0440\u0430 \u043f\u043e \u0444\u0443\u0442\u0431\u043e\u043b\u0443 2014"
        },
        {
          "name": "2014 FIFA World Cup Brazil"
        }
      ],
      "shortDescription": null,
      "logo": {
        "url": null
      },
      "watchability": {
        "items": null
      },
      "releaseYears": [
        {
          "start": 2014,
          "end": 2014
        }
      ]
    },
    {
      "id": 689532,
      "type": "tv-series",
      "externalId": {
        "kpHD": null,
        "imdb": null
      },
      "name": "\u0427\u0435\u043c\u043f\u0438\u043e\u043d\u0430\u0442 \u0415\u0432\u0440\u043e\u043f\u044b \u043f\u043e \u0444\u0443\u0442\u0431\u043e\u043b\u0443 2012",
      "rating": {
        "kp": 7.738,
        "imdb": 7.4,
        "filmCritics": 0,
        "russianFilmCritics": 0,
        "await": null
      },
      "description": "14-\u0439 \u0427\u0435\u043c\u043f\u0438\u043e\u043d\u0430\u0442 \u0415\u0432\u0440\u043e\u043f\u044b, \u0444\u0443\u0442\u0431\u043e\u043b\u044c\u043d\u044b\u0439 \u0442\u0443\u0440\u043d\u0438\u0440 \u0441\u0440\u0435\u0434\u0438 \u0435\u0432\u0440\u043e\u043f\u0435\u0439\u0441\u043a\u0438\u0445 \u0441\u0442\u0440\u0430\u043d, \u043f\u0440\u043e\u0432\u043e\u0434\u0438\u043c\u044b\u0439 \u0440\u0430\u0437 \u0432 \u0447\u0435\u0442\u044b\u0440\u0435 \u0433\u043e\u0434\u0430 \u043f\u043e\u0434 \u044d\u0433\u0438\u0434\u043e\u0439 \u0423\u0415\u0424\u0410.",
      "votes": {
        "kp": 1862,
        "imdb": 356,
        "filmCritics": 0,
        "russianFilmCritics": 0,
        "await": 0
      },
      "year": 2012,
      "poster": {
        "url": "https://st.kp.yandex.net/images/film_big/689532.jpg",
        "previewUrl": "https://st.kp.yandex.net/images/film_iphone/iphone360_689532.jpg"
      },
      "genres": [
        {
          "name": "\u0441\u043f\u043e\u0440\u0442"
        },
        {
          "name": "\u0446\u0435\u0440\u0435\u043c\u043e\u043d\u0438\u044f"
        }
      ],
      "countries": [
        {
          "name": "\u041f\u043e\u043b\u044c\u0448\u0430"
        },
        {
          "name": "\u0423\u043a\u0440\u0430\u0438\u043d\u0430"
        }
      ],
      "alternativeName": "2012 UEFA European Football Championship",
      "enName": null,
      "names": [
        {
          "name": "\u0427\u0435\u043c\u043f\u0438\u043e\u043d\u0430\u0442 \u0415\u0432\u0440\u043e\u043f\u044b \u043f\u043e \u0444\u0443\u0442\u0431\u043e\u043b\u0443 2012"
        },
        {
          "name": "2012 UEFA European Football Championship"
        }
      ],
      "movieLength": null,
      "shortDescription": null,
      "logo": {
        "url": null
      },
      "watchability": {
        "items": null
      },
      "releaseYears": [
        {
          "start": 2012,
          "end": 2012
        }
      ]
    },
    {
      "id": 689591,
      "type": "tv-series",
      "externalId": {
        "kpHD": null,
        "imdb": "tt1245396"
      },
      "name": "\u0427\u0435\u043c\u043f\u0438\u043e\u043d\u0430\u0442 \u0415\u0432\u0440\u043e\u043f\u044b \u043f\u043e \u0444\u0443\u0442\u0431\u043e\u043b\u0443 2008",
      "rating": {
        "kp": 8.11,
        "imdb": 8,
        "filmCritics": 0,
        "russianFilmCritics": 0,
        "await": null
      },
      "description": "\u0424\u0443\u0442\u0431\u043e\u043b\u044c\u043d\u044b\u0439 \u0442\u0443\u0440\u043d\u0438\u0440 \u0434\u043b\u044f \u0435\u0432\u0440\u043e\u043f\u0435\u0439\u0441\u043a\u0438\u0445 \u0441\u0442\u0440\u0430\u043d, \u043f\u0440\u043e\u0432\u043e\u0434\u0438\u043c\u044b\u043c \u0440\u0430\u0437 \u0432 \u0447\u0435\u0442\u044b\u0440\u0435 \u0433\u043e\u0434\u0430 \u043f\u043e\u0434 \u044d\u0433\u0438\u0434\u043e\u0439 \u0423\u0415\u0424\u0410. \u0422\u0443\u0440\u043d\u0438\u0440 \u043f\u0440\u043e\u0432\u043e\u0434\u0438\u043b\u0441\u044f \u0441\u043e\u0432\u043c\u0435\u0441\u0442\u043d\u043e \u0410\u0432\u0441\u0442\u0440\u0438\u0435\u0439 \u0438 \u0428\u0432\u0435\u0439\u0446\u0430\u0440\u0438\u0435\u0439, \u043d\u0430\u0447\u0430\u043b\u0441\u044f 7 \u0438\u044e\u043d\u044f 2008 \u0433\u043e\u0434\u0430 \u0438 \u0437\u0430\u0432\u0435\u0440\u0448\u0438\u043b\u0441\u044f 29 \u0438\u044e\u043d\u044f 2008 \u0433\u043e\u0434\u0430. \u042d\u0442\u043e \u0431\u044b\u043b \u0432\u0442\u043e\u0440\u043e\u0439 \u0442\u0443\u0440\u043d\u0438\u0440 \u0432 \u0438\u0441\u0442\u043e\u0440\u0438\u0438 \u0435\u0432\u0440\u043e\u043f\u0435\u0439\u0441\u043a\u0438\u0445 \u043d\u0430\u0446\u0438\u043e\u043d\u0430\u043b\u044c\u043d\u044b\u0445 \u0444\u0443\u0442\u0431\u043e\u043b\u044c\u043d\u044b\u0445 \u043f\u0435\u0440\u0432\u0435\u043d\u0441\u0442\u0432, \u0445\u043e\u0437\u044f\u0435\u0432\u0430\u043c\u0438 \u043a\u043e\u0442\u043e\u0440\u043e\u0433\u043e \u044f\u0432\u043b\u044f\u044e\u0442\u0441\u044f \u0434\u0432\u0435 \u0441\u0442\u0440\u0430\u043d\u044b. \u041f\u0435\u0440\u0432\u044b\u043c \u0441\u0442\u0430\u043b \u0447\u0435\u043c\u043f\u0438\u043e\u043d\u0430\u0442 \u0415\u0432\u0440\u043e\u043f\u044b 2000 \u0433\u043e\u0434\u0430, \u043f\u0440\u043e\u0432\u0435\u0434\u0451\u043d\u043d\u044b\u0439 \u0432 \u0411\u0435\u043b\u044c\u0433\u0438\u0438 \u0438 \u041d\u0438\u0434\u0435\u0440\u043b\u0430\u043d\u0434\u0430\u0445.",
      "votes": {
        "kp": 1625,
        "imdb": 358,
        "filmCritics": 0,
        "russianFilmCritics": 0,
        "await": 0
      },
      "year": 2008,
      "poster": {
        "url": "https://st.kp.yandex.net/images/film_big/689591.jpg",
        "previewUrl": "https://st.kp.yandex.net/images/film_iphone/iphone360_689591.jpg"
      },
      "genres": [
        {
          "name": "\u0441\u043f\u043e\u0440\u0442"
        },
        {
          "name": "\u0446\u0435\u0440\u0435\u043c\u043e\u043d\u0438\u044f"
        }
      ],
      "countries": [
        {
          "name": "\u0410\u0432\u0441\u0442\u0440\u0438\u044f"
        },
        {
          "name": "\u0428\u0432\u0435\u0439\u0446\u0430\u0440\u0438\u044f"
        }
      ],
      "alternativeName": "2008 UEFA European Football Championship",
      "enName": null,
      "names": [
        {
          "name": "\u0427\u0435\u043c\u043f\u0438\u043e\u043d\u0430\u0442 \u0415\u0432\u0440\u043e\u043f\u044b \u043f\u043e \u0444\u0443\u0442\u0431\u043e\u043b\u0443 2008"
        },
        {
          "name": "2008 UEFA European Football Championship"
        }
      ],
      "movieLength": null,
      "shortDescription": null,
      "logo": {
        "url": null
      },
      "watchability": {
        "items": null
      },
      "releaseYears": [
        {
          "start": 2008,
          "end": 2008
        }
      ]
    },
    {
      "id": 668750,
      "type": "tv-series",
      "externalId": {
        "kpHD": null,
        "imdb": "tt0496190"
      },
      "name": "\u0427\u0435\u043c\u043f\u0438\u043e\u043d\u0430\u0442 \u043c\u0438\u0440\u0430 \u043f\u043e \u0444\u0443\u0442\u0431\u043e\u043b\u0443 2006",
      "rating": {
        "kp": 8.069,
        "imdb": 8,
        "filmCritics": 0,
        "russianFilmCritics": 0,
        "await": null
      },
      "description": "18-\u0439 \u0447\u0435\u043c\u043f\u0438\u043e\u043d\u0430\u0442 \u043c\u0438\u0440\u0430 \u043f\u043e \u0444\u0443\u0442\u0431\u043e\u043b\u0443 \u0424\u0418\u0424\u0410, \u043a\u043e\u0442\u043e\u0440\u044b\u0439 \u043f\u0440\u043e\u0445\u043e\u0434\u0438\u043b \u0441 9 \u0438\u044e\u043d\u044f \u043f\u043e 9 \u0438\u044e\u043b\u044f 2006 \u0433\u043e\u0434\u0430 \u0432 \u0413\u0435\u0440\u043c\u0430\u043d\u0438\u0438.",
      "votes": {
        "kp": 1473,
        "imdb": 803,
        "filmCritics": 0,
        "russianFilmCritics": 0,
        "await": 0
      },
      "year": 2006,
      "poster": {
        "url": "https://st.kp.yandex.net/images/film_big/668750.jpg",
        "previewUrl": "https://st.kp.yandex.net/images/film_iphone/iphone360_668750.jpg"
      },
      "genres": [
        {
          "name": "\u0441\u043f\u043e\u0440\u0442"
        },
        {
          "name": "\u0446\u0435\u0440\u0435\u043c\u043e\u043d\u0438\u044f"
        }
      ],
      "countries": [
        {
          "name": "\u0413\u0435\u0440\u043c\u0430\u043d\u0438\u044f"
        }
      ],
      "alternativeName": "2006 FIFA World Cup",
      "enName": null,
      "names": [
        {
          "name": "\u0427\u0435\u043c\u043f\u0438\u043e\u043d\u0430\u0442 \u043c\u0438\u0440\u0430 \u043f\u043e \u0444\u0443\u0442\u0431\u043e\u043b\u0443 2006"
        },
        {
          "name": "2006 FIFA World Cup"
        }
      ],
      "movieLength": null,
      "shortDescription": null,
      "logo": {
        "url": null
      },
      "watchability": {
        "items": null
      },
      "releaseYears": [
        {
          "start": 2006,
          "end": 2006
        }
      ]
    },
    {
      "id": 1112140,
      "type": "movie",
      "externalId": {
        "kpHD": null,
        "imdb": "tt6635044"
      },
      "name": "75-\u044f \u0446\u0435\u0440\u0435\u043c\u043e\u043d\u0438\u044f \u0432\u0440\u0443\u0447\u0435\u043d\u0438\u044f \u043f\u0440\u0435\u043c\u0438\u0438 \u00ab\u0417\u043e\u043b\u043e\u0442\u043e\u0439 \u0433\u043b\u043e\u0431\u0443\u0441\u00bb",
      "rating": {
        "kp": 6.45,
        "imdb": 5.6,
        "filmCritics": 0,
        "russianFilmCritics": 0,
        "await": 0
      },
      "description": null,
      "votes": {
        "kp": 248,
        "imdb": 623,
        "filmCritics": 0,
        "russianFilmCritics": 0,
        "await": 0
      },
      "year": 2018,
      "poster": {
        "url": "https://st.kp.yandex.net/images/film_big/1112140.jpg",
        "previewUrl": "https://st.kp.yandex.net/images/film_iphone/iphone360_1112140.jpg"
      },
      "genres": [
        {
          "name": "\u0446\u0435\u0440\u0435\u043c\u043e\u043d\u0438\u044f"
        }
      ],
      "countries": [
        {
          "name": "\u0421\u0428\u0410"
        }
      ],
      "alternativeName": "75th Golden Globe Awards",
      "enName": null,
      "movieLength": null,
      "names": [
        {
          "name": "75-\u044f \u0446\u0435\u0440\u0435\u043c\u043e\u043d\u0438\u044f \u0432\u0440\u0443\u0447\u0435\u043d\u0438\u044f \u043f\u0440\u0435\u043c\u0438\u0438 \u00ab\u0417\u043e\u043b\u043e\u0442\u043e\u0439 \u0433\u043b\u043e\u0431\u0443\u0441\u00bb"
        },
        {
          "name": "75th Golden Globe Awards"
        }
      ],
      "shortDescription": null,
      "logo": {
        "url": null
      },
      "watchability": {
        "items": null
      }
    },
    {
      "id": 841216,
      "type": "tv-series",
      "externalId": {
        "kpHD": null,
        "imdb": "tt2959458"
      },
      "name": "\u041a\u0443\u0431\u043e\u043a \u041a\u043e\u043d\u0444\u0435\u0434\u0435\u0440\u0430\u0446\u0438\u0439 2013",
      "rating": {
        "kp": 6.645,
        "imdb": 6.8,
        "filmCritics": 0,
        "russianFilmCritics": 0,
        "await": null
      },
      "description": "\u0414\u0435\u0432\u044f\u0442\u044b\u0439 \u0440\u043e\u0437\u044b\u0433\u0440\u044b\u0448 \u041a\u0443\u0431\u043a\u0430 \u043a\u043e\u043d\u0444\u0435\u0434\u0435\u0440\u0430\u0446\u0438\u0439, \u0444\u0443\u0442\u0431\u043e\u043b\u044c\u043d\u043e\u0433\u043e \u0442\u0443\u0440\u043d\u0438\u0440\u0430 \u0441\u0440\u0435\u0434\u0438 \u043d\u0430\u0446\u0438\u043e\u043d\u0430\u043b\u044c\u043d\u044b\u0445 \u0441\u0431\u043e\u0440\u043d\u044b\u0445: \u043f\u043e\u0431\u0435\u0434\u0438\u0442\u0435\u043b\u0438 \u043a\u0430\u0436\u0434\u043e\u0433\u043e \u0438\u0437 \u0448\u0435\u0441\u0442\u0438 \u043a\u043e\u043d\u0442\u0438\u043d\u0435\u043d\u0442\u0430\u043b\u044c\u043d\u044b\u0445 \u0447\u0435\u043c\u043f\u0438\u043e\u043d\u0430\u0442\u043e\u0432, \u043f\u043e\u0431\u0435\u0434\u0438\u0442\u0435\u043b\u044c \u0447\u0435\u043c\u043f\u0438\u043e\u043d\u0430\u0442\u0430 \u043c\u0438\u0440\u0430 \u0438 \u043a\u043e\u043c\u0430\u043d\u0434\u0430 \u0441\u0442\u0440\u0430\u043d\u044b, \u0432 \u043a\u043e\u0442\u043e\u0440\u043e\u0439 \u043f\u0440\u043e\u0432\u043e\u0434\u0438\u0442\u0441\u044f \u0441\u043e\u0440\u0435\u0432\u043d\u043e\u0432\u0430\u043d\u0438\u0435, \u043f\u0440\u043e\u0432\u043e\u0434\u0438\u043c\u043e\u0433\u043e \u043f\u043e\u0434 \u044d\u0433\u0438\u0434\u043e\u0439 \u0424\u0418\u0424\u0410.",
      "votes": {
        "kp": 233,
        "imdb": 62,
        "filmCritics": 0,
        "russianFilmCritics": 0,
        "await": 0
      },
      "year": 2013,
      "poster": {
        "url": "https://st.kp.yandex.net/images/film_big/841216.jpg",
        "previewUrl": "https://st.kp.yandex.net/images/film_iphone/iphone360_841216.jpg"
      },
      "genres": [
        {
          "name": "\u0441\u043f\u043e\u0440\u0442"
        },
        {
          "name": "\u0446\u0435\u0440\u0435\u043c\u043e\u043d\u0438\u044f"
        }
      ],
      "countries": [
        {
          "name": "\u0428\u0432\u0435\u0439\u0446\u0430\u0440\u0438\u044f"
        }
      ],
      "alternativeName": "FIFA Confederations Cup Brazil 2013",
      "enName": null,
      "movieLength": null,
      "names": [
        {
          "name": "\u041a\u0443\u0431\u043e\u043a \u041a\u043e\u043d\u0444\u0435\u0434\u0435\u0440\u0430\u0446\u0438\u0439 2013"
        },
        {
          "name": "FIFA Confederations Cup Brazil 2013"
        }
      ],
      "shortDescription": null,
      "logo": {
        "url": null
      },
      "watchability": {
        "items": null
      },
      "releaseYears": [
        {
          "start": 2013,
          "end": 2013
        }
      ]
    },
    {
      "id": 1397637,
      "alternativeName": "The 72nd Primetime Emmy Awards",
      "color": null,
      "countries": [
        {
          "name": "\u0421\u0428\u0410"
        }
      ],
      "description": null,
      "enName": null,
      "externalId": {
        "kpHD": "4aff9d2da66d32669d878102516e008e",
        "imdb": "tt11640058"
      },
      "genres": [
        {
          "name": "\u0446\u0435\u0440\u0435\u043c\u043e\u043d\u0438\u044f"
        }
      ],
      "movieLength": 133,
      "name": "\u042d\u043c\u043c\u0438 2020",
      "names": [
        {
          "name": "\u042d\u043c\u043c\u0438 2020"
        },
        {
          "name": "The 72nd Primetime Emmy Awards"
        }
      ],
      "poster": {
        "url": "https://st.kp.yandex.net/images/film_big/1397637.jpg",
        "previewUrl": "https://st.kp.yandex.net/images/film_iphone/iphone360_1397637.jpg"
      },
      "rating": {
        "kp": 0,
        "imdb": 5.1,
        "filmCritics": 0,
        "russianFilmCritics": 0,
        "await": 0
      },
      "shortDescription": "\u0414\u0436\u0438\u043c\u043c\u0438 \u041a\u0438\u043c\u043c\u0435\u043b, \u0442\u0440\u0438\u0443\u043c\u0444 HBO \u0438 \u0441\u0430\u043c\u0430\u044f \u043c\u043e\u043b\u043e\u0434\u0430\u044f \u043e\u0431\u043b\u0430\u0434\u0430\u0442\u0435\u043b\u044c\u043d\u0438\u0446\u0430 \u043d\u0430\u0433\u0440\u0430\u0434\u044b. \u0422\u0435\u043b\u0435\u043f\u0440\u0435\u043c\u0438\u044f, \u0432\u043f\u0435\u0440\u0432\u044b\u0435 \u043f\u0440\u043e\u0432\u0435\u0434\u0435\u043d\u043d\u0430\u044f \u043d\u0430 \u0443\u0434\u0430\u043b\u0435\u043d\u043a\u0435",
      "type": "movie",
      "votes": {
        "kp": 140,
        "imdb": 201,
        "filmCritics": 0,
        "russianFilmCritics": 0,
        "await": 1
      },
      "year": 2020,
      "logo": {
        "url": "https://avatars.mds.yandex.net/get-ott/1672343/2a00000174b152a68a24c7d633d8c7fc6841/orig"
      },
      "watchability": {
        "items": null
      }
    },
    {
      "id": 1346352,
      "type": "movie",
      "externalId": {
        "kpHD": null,
        "imdb": "tt10655652"
      },
      "name": "62-\u044f \u0446\u0435\u0440\u0435\u043c\u043e\u043d\u0438\u044f \u0432\u0440\u0443\u0447\u0435\u043d\u0438\u044f \u043f\u0440\u0435\u043c\u0438\u0438 \u00ab\u0413\u0440\u044d\u043c\u043c\u0438\u00bb",
      "rating": {
        "kp": 0,
        "imdb": 6,
        "filmCritics": 0,
        "russianFilmCritics": 0,
        "await": 0
      },
      "description": null,
      "votes": {
        "kp": 30,
        "imdb": 163,
        "filmCritics": 0,
        "russianFilmCritics": 0,
        "await": 0
      },
      "year": 2020,
      "poster": {
        "url": "https://st.kp.yandex.net/images/film_big/1346352.jpg",
        "previewUrl": "https://st.kp.yandex.net/images/film_iphone/iphone360_1346352.jpg"
      },
      "genres": [
        {
          "name": "\u0446\u0435\u0440\u0435\u043c\u043e\u043d\u0438\u044f"
        },
        {
          "name": "\u043c\u0443\u0437\u044b\u043a\u0430"
        }
      ],
      "countries": [
        {
          "name": "\u0421\u0428\u0410"
        }
      ],
      "alternativeName": "The 62nd Grammy Awards",
      "enName": null,
      "movieLength": 159,
      "names": [
        {
          "name": "62-\u044f \u0446\u0435\u0440\u0435\u043c\u043e\u043d\u0438\u044f \u0432\u0440\u0443\u0447\u0435\u043d\u0438\u044f \u043f\u0440\u0435\u043c\u0438\u0438 \u00ab\u0413\u0440\u044d\u043c\u043c\u0438\u00bb"
        },
        {
          "name": "The 62nd Grammy Awards"
        }
      ],
      "shortDescription": null,
      "logo": {
        "url": null
      },
      "watchability": {
        "items": null
      }
    },
    {
      "id": 780709,
      "type": "movie",
      "externalId": {
        "kpHD": null,
        "imdb": "tt2093048"
      },
      "name": "6-\u044f \u0435\u0436\u0435\u0433\u043e\u0434\u043d\u0430\u044f \u0446\u0435\u0440\u0435\u043c\u043e\u043d\u0438\u044f \u0432\u0440\u0443\u0447\u0435\u043d\u0438\u044f \u043f\u0440\u0435\u043c\u0438\u0438 People's Choice Awards",
      "rating": {
        "kp": 0,
        "imdb": 6.5,
        "filmCritics": 0,
        "russianFilmCritics": 0,
        "await": 0
      },
      "description": null,
      "votes": {
        "kp": 28,
        "imdb": 26,
        "filmCritics": 0,
        "russianFilmCritics": 0,
        "await": 0
      },
      "year": 1980,
      "poster": null,
      "genres": [
        {
          "name": "\u0446\u0435\u0440\u0435\u043c\u043e\u043d\u0438\u044f"
        }
      ],
      "countries": [
        {
          "name": "\u0421\u0428\u0410"
        }
      ],
      "alternativeName": "The 6th People's Choice Awards",
      "enName": null,
      "movieLength": null,
      "names": [
        {
          "name": "6-\u044f \u0435\u0436\u0435\u0433\u043e\u0434\u043d\u0430\u044f \u0446\u0435\u0440\u0435\u043c\u043e\u043d\u0438\u044f \u0432\u0440\u0443\u0447\u0435\u043d\u0438\u044f \u043f\u0440\u0435\u043c\u0438\u0438 People's Choice Awards"
        },
        {
          "name": "The 6th People's Choice Awards"
        }
      ],
      "shortDescription": null,
      "logo": {
        "url": null
      },
      "watchability": {
        "items": null
      }
    },
    {
      "id": 4412016,
      "alternativeName": "The 63rd Annual Grammy Awards",
      "countries": [
        {
          "name": "\u0421\u0428\u0410"
        }
      ],
      "description": null,
      "enName": null,
      "externalId": {
        "kpHD": null,
        "imdb": "tt11182946"
      },
      "genres": [
        {
          "name": "\u0446\u0435\u0440\u0435\u043c\u043e\u043d\u0438\u044f"
        },
        {
          "name": "\u043c\u0443\u0437\u044b\u043a\u0430"
        }
      ],
      "movieLength": 161,
      "name": "63-\u044f \u0446\u0435\u0440\u0435\u043c\u043e\u043d\u0438\u044f \u0432\u0440\u0443\u0447\u0435\u043d\u0438\u044f \u043f\u0440\u0435\u043c\u0438\u0438 \u00ab\u0413\u0440\u044d\u043c\u043c\u0438\u00bb",
      "names": [
        {
          "name": "63-\u044f \u0446\u0435\u0440\u0435\u043c\u043e\u043d\u0438\u044f \u0432\u0440\u0443\u0447\u0435\u043d\u0438\u044f \u043f\u0440\u0435\u043c\u0438\u0438 \u00ab\u0413\u0440\u044d\u043c\u043c\u0438\u00bb"
        },
        {
          "name": "The 63rd Annual Grammy Awards"
        }
      ],
      "poster": {
        "url": "https://st.kp.yandex.net/images/film_big/4412016.jpg",
        "previewUrl": "https://st.kp.yandex.net/images/film_iphone/iphone360_4412016.jpg"
      },
      "rating": {
        "kp": 0,
        "imdb": 5,
        "filmCritics": 0,
        "russianFilmCritics": 0,
        "await": 0
      },
      "shortDescription": null,
      "type": "movie",
      "votes": {
        "kp": 27,
        "imdb": 214,
        "filmCritics": 0,
        "russianFilmCritics": 0,
        "await": 0
      },
      "year": 2021,
      "logo": {
        "url": null
      },
      "watchability": {
        "items": null
      }
    }
  ],
  "total": 17,
  "limit": 10,
  "page": 1,
  "pages": 2
}